{
  "score": 5.0,
  "md5hash": "c2ec17749fc1ab5f8db9e997bac5478c",
  "results": [{
    "desc": "application is debuggable",
    "sourceStmt": "",
    "custom": "",
    "vulnKind": 3,
    "destMethod": "",
    "paths": [],
    "destStmt": "",
    "sourceMethod": ""
  }]
}