{
  "score": 5.0,
  "md5hash": "7ae08461df5ab00b4d177e1ea1a67466",
  "results": [{
    "desc": "application is debuggable",
    "sourceStmt": "",
    "custom": "",
    "vulnKind": 3,
    "destMethod": "",
    "paths": [],
    "destStmt": "",
    "sourceMethod": ""
  }]
}