{
  "score": 5.0,
  "md5hash": "ea18abdc55364cb3d6eef79674c5200f",
  "results": [{
    "desc": "application is debuggable",
    "sourceStmt": "",
    "custom": "",
    "vulnKind": 3,
    "destMethod": "",
    "paths": [],
    "destStmt": "",
    "sourceMethod": ""
  }]
}