{
  "score": 5.0,
  "md5hash": "cb6ca07321069a6af8ee07ea5f5816a1",
  "results": [{
    "desc": "application is debuggable",
    "sourceStmt": "",
    "custom": "",
    "vulnKind": 3,
    "destMethod": "",
    "paths": [],
    "destStmt": "",
    "sourceMethod": ""
  }]
}