Application Name: ExternalStorage-DataInjection-Lean-secure.apk
Uses Permissions: 

Component edu.ksu.cs.benign.MainActivity
  Component type: activity
  Exported: true
  Dynamic Registered: false
  Required Permission: 
  IntentFilters:
    IntentFilter:(Actions:["android.intent.action.MAIN"],Categories:["android.intent.category.LAUNCHER"])

  Inter-component communication (ICC) Result:



Taint analysis result:
  Sources found:
  Sinks found:
    <Descriptors: api_sink: Ljava/io/FileOutputStream;.write:([B)V 1>
  Discovered taint paths are listed below:
