{
  "score": 15.0,
  "md5hash": "3b0d16ebf70d1bc703a58f85bc1a9df2",
  "results": [{
    "desc": "application is debuggable",
    "sourceStmt": "",
    "custom": "",
    "vulnKind": 3,
    "destMethod": "",
    "paths": [],
    "destStmt": "",
    "sourceMethod": ""
  }, {
    "desc": "implicit intent or receiver",
    "sourceStmt": "virtualinvoke $r5.<edu.ksu.cs.benign.MainActivity: void startActivity(android.content.Intent)>($r2)",
    "custom": "",
    "vulnKind": 0,
    "destMethod": "",
    "paths": [],
    "destStmt": "",
    "sourceMethod": "<edu.ksu.cs.benign.MainActivity$1: void onClick(android.view.View)>"
  }]
}