2018-17-15 18:17:14.650 [main] INFO  com.horndroid.Main - Starting fsHornDroid...
2018-17-15 18:17:14.654 [main] INFO  com.horndroid.Main - Flow Sensitive Analysis on 64 bitvectors size
2018-17-15 18:17:14.656 [main] DEBUG com.horndroid.executors.HorndroidExecutor - Parsing sources and sinks...
2018-17-15 18:17:14.994 [main] DEBUG com.horndroid.executors.HorndroidExecutor - done in 338 milliseconds
2018-17-15 18:17:14.995 [main] DEBUG com.horndroid.executors.HorndroidExecutor - Collecting apk files to process...
2018-17-15 18:17:14.995 [main] DEBUG com.horndroid.executors.HorndroidExecutor - done in 0 milliseconds
2018-17-15 18:17:15.034 [main] INFO  com.horndroid.executors.HorndroidExecutor - Analysing InvalidCertificateAuthority-MITM-Lean-secure.apk
2018-17-15 18:17:15.062 [main] DEBUG com.horndroid.executors.HorndroidExecutor - Parsing entry points...
2018-17-15 18:17:15.066 [main] DEBUG com.horndroid.executors.HorndroidExecutor - done in 3 milliseconds
2018-17-15 18:17:15.066 [main] DEBUG com.horndroid.executors.HorndroidExecutor - Parsing callbacks and disabled activities...
2018-17-15 18:17:15.066 [main] INFO  com.horndroid.util.SourceSinkParser - Running apktool to obtain manifest xml and layout files
2018-17-15 18:17:17.154 [main] INFO  com.horndroid.util.SourceSinkParser - Exit Code:0
2018-17-15 18:17:17.155 [main] INFO  com.horndroid.util.SourceSinkParser - STDOUT:I: Using Apktool 2.3.0 on InvalidCertificateAuthority-MITM-Lean-secure.apk
2018-17-15 18:17:17.155 [main] INFO  com.horndroid.util.SourceSinkParser - STDOUT:I: Loading resource table...
2018-17-15 18:17:17.155 [main] INFO  com.horndroid.util.SourceSinkParser - STDOUT:I: Decoding AndroidManifest.xml with resources...
2018-17-15 18:17:17.155 [main] INFO  com.horndroid.util.SourceSinkParser - STDOUT:I: Loading resource table from file: /home/joydeep/.local/share/apktool/framework/1.apk
2018-17-15 18:17:17.155 [main] INFO  com.horndroid.util.SourceSinkParser - STDOUT:I: Regular manifest package...
2018-17-15 18:17:17.156 [main] INFO  com.horndroid.util.SourceSinkParser - STDOUT:I: Decoding file-resources...
2018-17-15 18:17:17.156 [main] INFO  com.horndroid.util.SourceSinkParser - STDOUT:I: Decoding values */* XMLs...
2018-17-15 18:17:17.156 [main] INFO  com.horndroid.util.SourceSinkParser - STDOUT:I: Copying raw classes.dex file...
2018-17-15 18:17:17.156 [main] INFO  com.horndroid.util.SourceSinkParser - STDOUT:I: Copying assets and libs...
2018-17-15 18:17:17.156 [main] INFO  com.horndroid.util.SourceSinkParser - STDOUT:I: Copying unknown files...
2018-17-15 18:17:17.156 [main] INFO  com.horndroid.util.SourceSinkParser - STDOUT:I: Copying original files...
2018-17-15 18:17:17.375 [main] DEBUG com.horndroid.executors.HorndroidExecutor - ...done in 2309 milliseconds
2018-17-15 18:17:17.375 [main] DEBUG com.horndroid.executors.HorndroidExecutor - Sorting classes...
2018-17-15 18:17:17.392 [main] DEBUG com.horndroid.executors.HorndroidExecutor - done in 16 milliseconds
2018-17-15 18:17:17.392 [main] DEBUG com.horndroid.executors.HorndroidExecutor - Collecting data for Horn Clause generation...
2018-17-15 18:17:17.472 [main] DEBUG com.horndroid.executors.HorndroidExecutor - done in 79 milliseconds
2018-17-15 18:17:17.472 [main] DEBUG com.horndroid.executors.HorndroidExecutor - Generating Horn Clauses..
2018-17-15 18:17:17.472 [main] INFO  com.horndroid.analysis.Analysis - Ready to start generating Horn Clauses:
2018-17-15 18:17:17.473 [main] INFO  com.horndroid.analysis.Analysis - Number of classes in APK : 3
2018-17-15 18:17:17.473 [main] INFO  com.horndroid.analysis.Analysis - Number of methods in APK: 8
2018-17-15 18:17:17.473 [main] INFO  com.horndroid.analysis.Analysis - Number of instructions in APK: 156
2018-17-15 18:17:17.473 [main] INFO  com.horndroid.analysis.Analysis - Number of instances in APK: 41
2018-17-15 18:17:17.481 [main] INFO  com.horndroid.analysis.Analysis - Number of sources: 12
2018-17-15 18:17:17.481 [main] INFO  com.horndroid.analysis.Analysis - Number of sinks: 10
2018-17-15 18:17:17.481 [main] INFO  com.horndroid.analysis.Analysis - Number of classes : 3
2018-17-15 18:17:17.481 [main] INFO  com.horndroid.analysis.Analysis - Number of methods: 8
2018-17-15 18:17:17.481 [main] INFO  com.horndroid.analysis.Analysis - Number of instructions: 156
2018-17-15 18:17:17.481 [main] INFO  com.horndroid.analysis.Analysis - Number of instances : 41
2018-17-15 18:17:17.574 [main] DEBUG com.horndroid.executors.HorndroidExecutor - ...done in 102 milliseconds
2018-17-15 18:17:17.574 [main] DEBUG com.horndroid.executors.HorndroidExecutor - Waiting for treads to terminate...
2018-17-15 18:17:17.574 [main] DEBUG com.horndroid.executors.HorndroidExecutor - ...done in 0 milliseconds
2018-17-15 18:17:17.575 [main] DEBUG com.horndroid.executors.HorndroidExecutor - Executing all queries...
2018-17-15 18:17:17.576 [main] INFO  com.horndroid.z3.FSEngine - Number of the generated queries: 16
2018-17-15 18:17:17.636 [main] INFO  com.horndroid.z3.FSEngine - 1 Test if register 7 leaks at line 86 in method onHandleIntent(Landroid/content/Intent;)V of the class Ledu/ksu/cs/benign/MyIntentService; to the sink <init>(Ljava/lang/String;)V:NO LEAK
2018-17-15 18:17:17.771 [main] INFO  com.horndroid.z3.FSEngine - 2 [REF] Test if register 7 leaks at line 86 in method onHandleIntent(Landroid/content/Intent;)V of the class Ledu/ksu/cs/benign/MyIntentService; to the sink <init>(Ljava/lang/String;)V:NO LEAK
2018-17-15 18:17:17.828 [main] INFO  com.horndroid.z3.FSEngine - 3 Test if register 5 leaks at line 86 in method onHandleIntent(Landroid/content/Intent;)V of the class Ledu/ksu/cs/benign/MyIntentService; to the sink <init>(Ljava/lang/String;)V:NO LEAK
2018-17-15 18:17:17.883 [main] INFO  com.horndroid.z3.FSEngine - 4 [REF] Test if register 5 leaks at line 86 in method onHandleIntent(Landroid/content/Intent;)V of the class Ledu/ksu/cs/benign/MyIntentService; to the sink <init>(Ljava/lang/String;)V:NO LEAK
2018-17-15 18:17:17.937 [main] INFO  com.horndroid.z3.FSEngine - 5 Test if register 5 leaks at line 89 in method onHandleIntent(Landroid/content/Intent;)V of the class Ledu/ksu/cs/benign/MyIntentService; to the sink openConnection()Ljava/net/URLConnection;:NO LEAK
2018-17-15 18:17:17.993 [main] INFO  com.horndroid.z3.FSEngine - 6 [REF] Test if register 5 leaks at line 89 in method onHandleIntent(Landroid/content/Intent;)V of the class Ledu/ksu/cs/benign/MyIntentService; to the sink openConnection()Ljava/net/URLConnection;:NO LEAK
2018-17-15 18:17:18.048 [main] INFO  com.horndroid.z3.FSEngine - 7 Test if register 2 leaks at line 149 in method onHandleIntent(Landroid/content/Intent;)V of the class Ledu/ksu/cs/benign/MyIntentService; to the sink printStackTrace()V:NO LEAK
2018-17-15 18:17:18.103 [main] INFO  com.horndroid.z3.FSEngine - 8 [REF] Test if register 2 leaks at line 149 in method onHandleIntent(Landroid/content/Intent;)V of the class Ledu/ksu/cs/benign/MyIntentService; to the sink printStackTrace()V:NO LEAK
2018-17-15 18:17:18.157 [main] INFO  com.horndroid.z3.FSEngine - 9 Test if register 9 leaks at line 187 in method onHandleIntent(Landroid/content/Intent;)V of the class Ledu/ksu/cs/benign/MyIntentService; to the sink d(Ljava/lang/String;Ljava/lang/String;)I:NO LEAK
2018-17-15 18:17:18.211 [main] INFO  com.horndroid.z3.FSEngine - 10 [REF] Test if register 9 leaks at line 187 in method onHandleIntent(Landroid/content/Intent;)V of the class Ledu/ksu/cs/benign/MyIntentService; to the sink d(Ljava/lang/String;Ljava/lang/String;)I:NO LEAK
2018-17-15 18:17:18.267 [main] INFO  com.horndroid.z3.FSEngine - 11 Test if register 8 leaks at line 187 in method onHandleIntent(Landroid/content/Intent;)V of the class Ledu/ksu/cs/benign/MyIntentService; to the sink d(Ljava/lang/String;Ljava/lang/String;)I:NO LEAK
2018-17-15 18:17:18.324 [main] INFO  com.horndroid.z3.FSEngine - 12 [REF] Test if register 8 leaks at line 187 in method onHandleIntent(Landroid/content/Intent;)V of the class Ledu/ksu/cs/benign/MyIntentService; to the sink d(Ljava/lang/String;Ljava/lang/String;)I:NO LEAK
2018-17-15 18:17:18.379 [main] INFO  com.horndroid.z3.FSEngine - 13 Test if register 2 leaks at line 190 in method onHandleIntent(Landroid/content/Intent;)V of the class Ledu/ksu/cs/benign/MyIntentService; to the sink printStackTrace()V:NO LEAK
2018-17-15 18:17:18.435 [main] INFO  com.horndroid.z3.FSEngine - 14 [REF] Test if register 2 leaks at line 190 in method onHandleIntent(Landroid/content/Intent;)V of the class Ledu/ksu/cs/benign/MyIntentService; to the sink printStackTrace()V:NO LEAK
2018-17-15 18:17:18.490 [main] INFO  com.horndroid.z3.FSEngine - 15 Test if register 1 leaks at line 27 in method copyInputStreamToString(Ljava/io/InputStream;)Ljava/lang/String; of the class Ledu/ksu/cs/benign/MyIntentService; to the sink printStackTrace()V:NO LEAK
2018-17-15 18:17:18.544 [main] INFO  com.horndroid.z3.FSEngine - 16 [REF] Test if register 1 leaks at line 27 in method copyInputStreamToString(Ljava/io/InputStream;)Ljava/lang/String; of the class Ledu/ksu/cs/benign/MyIntentService; to the sink printStackTrace()V:NO LEAK
2018-17-15 18:17:18.544 [main] DEBUG com.horndroid.executors.HorndroidExecutor - ...done in 969 milliseconds
